; liste des administrationUnitCode : https://gazelle.ehealth.brussels/SVSSimulator/rest/RetrieveValueSetForSimulator?id=2.16.840.1.113883.1.11.14570   
; liste des routeOfAdministration: https://gazelle.ehealth.brussels/SVSSimulator/rest/RetrieveValueSetForSimulator?id=2.16.840.1.114222.4.11.81

@startuml


package "Chill/PersonBundle" {
    class Person
}

package "Chill/MainBundle" {
    class User
    class Scope
}

package "Chill/HealthBundle" {

    class Consultation {
        - id
        - date
    }
    
    class Medication {
        - id: int
        - date_from: \DateTime
        - substance: Code
        - substance_string: string # vide par défaut
        - doseQuantity_value: decimal
        - doseQuantity_unit:  string #notation UCUM
        - administrationUnitCode: enum #depuis liste
        - administration_frequency: string
        - administrative_unit: string
        - routeOfAdminisration: enum #depuis liste
        - date_to  : \DateTime
        - mode_delivrance: string
        - never_publish: boolean
    }
    

    
    note top of Medication: pour `administraton frequency` \non devra trouver un schema de notation
    
    class Code {
        - id: int
        - type: enum # drug, substance, ...
        - codeSystem: string
        - displayName: string
        - code: string
    }
    
    note right of Code: Peut être un code snomed\n(pour le POC, on encode les substances),\nou un médicament de la liste de l'APB
    
    Consultation "1" -> "n" Medication: has medications
    Medication --> "0,1 substance" Code 
    
}

package "Chill/BrusafeBundle" {
    class Document {
        id: int #internal id
        title: string
        date_creation: \DateTime
        content: xml
    }
    
    Document "0,n" --> "1,n" Consultation
    Document "0,n" --> "0,n" Medication
    
    class RelationState {
        - id: int
        - date: \DateTime
        - patient_id: string
        - saml_raw_data: xml # raw data collected from brusafe api
    }
    
}

Consultation -> Scope
Consultation -> User
Document     --> "1 author" User
Document     --> "1 patient" Person

RelationState --> "1 user" User
RelationState --> "1 person" Person

@enduml
